min_cov,min_var_freq,somatic_p,n
4,0.08,0.05,343
4,0.17,0.03,225
4,0.19,0.04,246
5,0.05,0.04,193
5,0.08,0.05,336
5,0.12,0.06,217
5,0.18,0.05,246
6,0.03,0.08,193
6,0.04,0.08,193
6,0.08,0.05,322
6,0.13,0.09,219
6,0.16,0.04,230
7,0.08,0.05,310
7,0.09,0.06,205
8,0.08,0.05,303
8,0.09,0.02,198
8,0.13,0.07,220
8,0.15,0.08,230
8,0.16,0.09,235
8,0.19,0.03,237
9,0.08,0.05,294
9,0.1,0.1,202
9,0.11,0.03,200
9,0.11,0.08,207
9,0.17,0.01,192
9,0.2,0.09,253
10,0.02,0.05,262
10,0.04,0.05,265
10,0.06,0.05,272
10,0.08,0.01,176
10,0.08,0.02,207
10,0.08,0.03,235
10,0.08,0.04,256
10,0.08,0.05,280
10,0.08,0.06,300
10,0.08,0.07,327
10,0.08,0.08,346
10,0.08,0.09,373
10,0.08,0.1,405
10,0.1,0.05,266
10,0.12,0.05,255
10,0.13,0.1,198
10,0.14,0.05,251
10,0.14,0.06,202
10,0.16,0.05,245
10,0.18,0.05,244
10,0.2,0.05,238
11,0.08,0.05,268
11,0.18,0.07,213
11,0.2,0.08,227
12,0.05,0.01,150
12,0.08,0.05,259
13,0.06,0.06,150
13,0.06,0.09,150
13,0.07,0.02,151
13,0.07,0.09,154
13,0.08,0.05,253
13,0.19,0.07,206
