min_cov,min_var_freq,somatic_p,n
4,0.02,0.06,649
4,0.06,0.04,669
4,0.08,0.05,1919
4,0.1,0.05,2095
5,0.08,0.01,635
5,0.08,0.02,699
5,0.08,0.05,1696
5,0.13,0.02,1335
5,0.18,0.02,3026
6,0.08,0.05,1543
6,0.09,0.05,913
6,0.19,0.03,3818
6,0.2,0.07,4888
7,0.08,0.05,1441
7,0.1,0.04,994
7,0.19,0.03,3820
8,0.08,0.05,1357
8,0.1,0.04,999
8,0.11,0.02,1015
8,0.15,0.06,2241
9,0.03,0.07,599
9,0.08,0.05,1280
10,0.02,0.05,998
10,0.04,0.05,1039
10,0.06,0.05,1099
10,0.08,0.01,682
10,0.08,0.02,869
10,0.08,0.03,1003
10,0.08,0.04,1105
10,0.08,0.05,1210
10,0.08,0.06,701
10,0.08,0.07,1361
10,0.08,0.08,1443
10,0.08,0.09,1525
10,0.08,0.1,1576
10,0.1,0.05,1365
10,0.12,0.05,1632
10,0.13,0.07,1458
10,0.14,0.05,2031
10,0.16,0.05,2684
10,0.18,0.04,3284
10,0.18,0.05,3503
10,0.2,0.05,4685
11,0.03,0.01,397
11,0.03,0.06,479
11,0.03,0.07,479
11,0.04,0.06,487
11,0.05,0.07,504
11,0.08,0.01,525
11,0.08,0.05,1143
11,0.08,0.07,637
11,0.15,0.05,1989
11,0.15,0.1,1989
12,0.08,0.05,1069
12,0.11,0.02,787
12,0.12,0.01,842
13,0.08,0.05,1042
13,0.14,0.01,1156
