min_cov,min_var_freq,somatic_p,n
4,0.06,0.05,98
4,0.08,0.05,113
5,0.03,0.05,91
5,0.15,0.05,192
6,0.08,0.05,113
7,0.06,0.05,99
7,0.1,0.05,135
8,0.09,0.05,127
8,0.13,0.05,169
9,0.08,0.05,110
10,0.07,0.05,99
10,0.14,0.05,179
10,0.16,0.05,198
11,0.14,0.05,173
12,0.08,0.05,99
