min_cov,min_var_freq,somatic_p,n
4,0.06,0.05,35
4,0.07,0.05,37
4,0.2,0.05,85
6,0.02,0.05,35
6,0.06,0.05,35
7,0.15,0.05,66
9,0.03,0.05,35
10,0.01,0.05,33
10,0.14,0.05,61
11,0.16,0.05,63
12,0.05,0.05,26
12,0.08,0.05,28
13,0.07,0.05,28
13,0.08,0.05,28
13,0.2,0.05,76
