min_cov,min_var_freq,somatic_p,n
4,0.08,0.05,382
4,0.14,0.04,511
4,0.2,0.05,1634
5,0.01,0.09,529
5,0.02,0.06,533
5,0.04,0.09,534
5,0.08,0.03,551
5,0.11,0.02,605
6,0.11,0.08,672
6,0.12,0.05,454
6,0.18,0.08,1295
7,0.03,0.06,533
7,0.06,0.08,545
7,0.08,0.05,758
7,0.13,0.09,765
7,0.16,0.08,1059
8,0.01,0.09,529
8,0.08,0.05,738
9,0.02,0.09,513
9,0.03,0.05,515
9,0.03,0.07,514
9,0.04,0.06,516
9,0.07,0.1,537
9,0.08,0.05,718
10,0.01,0.01,460
10,0.01,0.06,487
10,0.04,0.05,670
10,0.05,0.04,494
10,0.07,0.04,510
10,0.08,0.04,642
10,0.08,0.1,863
10,0.1,0.05,586
10,0.1,0.1,585
10,0.12,0.05,812
10,0.18,0.05,1270
10,0.2,0.05,1567
11,0.08,0.05,678
12,0.14,0.01,652
12,0.17,0.07,1079
12,0.19,0.08,1346
