min_cov,min_var_freq,somatic_p,n
3,0.01,0.07,80
3,0.11,0.01,91
3,0.11,0.02,99
4,0.08,0.08,96
5,0.08,0.05,96
5,0.15,0.02,141
5,0.15,0.06,192
6,0.17,0.03,183
6,0.18,0.06,233
6,0.2,0.01,147
7,0.08,0.05,96
7,0.15,0.09,192
7,0.2,0.02,170
8,0.01,0.02,66
9,0.02,0.05,78
9,0.09,0.08,106
9,0.18,0.02,162
10,0.06,0.01,66
10,0.08,0.05,96
10,0.08,0.06,108
10,0.08,0.09,133
10,0.1,0.05,121
10,0.1,0.09,121
10,0.11,0.09,127
10,0.12,0.05,142
10,0.18,0.05,231
10,0.18,0.09,231
11,0.04,0.06,72
11,0.09,0.02,79
12,0.01,0.02,56
12,0.08,0.05,82
12,0.08,0.06,82
12,0.09,0.07,94
12,0.19,0.09,218
13,0.05,0.09,65
13,0.07,0.02,60
13,0.07,0.03,64
13,0.08,0.05,77
13,0.09,0.05,89
13,0.13,0.09,139
