min_cov,min_var_freq,somatic_p,n
3,0.14,0.1,729
3,0.15,0.09,738
4,0.03,0.1,635
4,0.04,0.08,635
4,0.05,0.08,639
4,0.08,0.06,668
4,0.2,0.04,757
5,0.05,0.09,639
5,0.19,0.03,737
6,0.11,0.03,673
6,0.14,0.06,729
6,0.2,0.03,740
6,0.2,0.1,776
7,0.06,0.09,646
7,0.08,0.05,668
7,0.18,0.09,767
8,0.02,0.1,631
8,0.08,0.05,669
9,0.08,0.08,657
9,0.16,0.01,684
10,0.08,0.07,665
10,0.08,0.08,671
10,0.08,0.09,674
10,0.08,0.1,679
10,0.1,0.05,665
10,0.1,0.09,665
10,0.18,0.05,745
10,0.2,0.08,754
10,0.2,0.1,754
11,0.06,0.06,615
11,0.08,0.05,637
11,0.13,0.1,680
12,0.01,0.1,588
12,0.02,0.1,592
12,0.08,0.05,630
12,0.1,0.03,633
12,0.1,0.04,643
13,0.03,0.06,593
13,0.07,0.06,617
13,0.11,0.06,648
