min_cov,min_var_freq,somatic_p,n
3,0.05,0.02,63
3,0.14,0.05,183
3,0.17,0.03,187
3,0.19,0.02,182
4,0.09,0.02,84
4,0.2,0.01,157
4,0.2,0.02,189
5,0.04,0.03,67
5,0.06,0.02,66
5,0.08,0.05,95
5,0.17,0.05,223
6,0.08,0.05,95
6,0.11,0.01,91
6,0.17,0.1,223
6,0.18,0.02,174
7,0.08,0.05,95
7,0.12,0.08,144
7,0.14,0.08,183
7,0.15,0.09,192
7,0.16,0.01,132
7,0.17,0.02,164
8,0.05,0.04,75
8,0.08,0.05,96
8,0.15,0.01,126
9,0.08,0.05,91
9,0.13,0.05,158
9,0.15,0.07,188
10,0.06,0.05,70
10,0.08,0.05,85
10,0.08,0.09,113
10,0.09,0.1,94
10,0.1,0.05,102
10,0.2,0.05,254
11,0.08,0.05,80
11,0.12,0.1,129
11,0.16,0.05,196
12,0.01,0.06,57
12,0.1,0.07,94
13,0.01,0.08,54
13,0.11,0.05,103
