min_cov,min_var_freq,somatic_p,n
3,0.02,0.06,705
3,0.08,0.03,713
3,0.15,0.08,797
4,0.09,0.02,711
4,0.16,0.03,776
5,0.03,0.01,692
5,0.06,0.01,693
5,0.17,0.08,814
6,0.07,0.01,700
6,0.07,0.09,720
6,0.08,0.05,1031
6,0.16,0.09,808
6,0.19,0.1,832
7,0.2,0.03,793
8,0.08,0.05,983
8,0.12,0.07,757
8,0.13,0.02,734
8,0.2,0.01,745
9,0.01,0.05,686
9,0.01,0.1,686
9,0.08,0.05,963
9,0.13,0.04,739
9,0.16,0.08,789
10,0.04,0.05,902
10,0.05,0.08,660
10,0.08,0.01,754
10,0.08,0.02,820
10,0.08,0.04,893
10,0.08,0.07,1017
10,0.1,0.01,657
10,0.1,0.05,923
10,0.11,0.1,702
10,0.17,0.06,766
11,0.08,0.05,902
11,0.08,0.1,646
12,0.06,0.03,595
12,0.06,0.04,598
12,0.07,0.08,615
13,0.08,0.04,596
13,0.14,0.05,664
