EXPERIMENT,CHROM,POS,SUBSTITUTION,VAF,CONTEXT,SIG
DT_usa_128_TU_mc10_mvf008_sp005,chr1,44002206,A>C,30.32%,AA.AC,WA
DT_usa_128_TU_mc10_mvf008_sp005,chr1,58194558,C>T,41.03%,GT.CC,None
DT_usa_128_TU_mc10_mvf008_sp005,chr1,61076330,T>G,26.32%,GA.AG,WA
DT_usa_128_TU_mc10_mvf008_sp005,chr1,72301252,G>A,35.29%,TC.GG,None
DT_usa_128_TU_mc10_mvf008_sp005,chr1,85094048,G>T,22%,TT.TA,None
DT_usa_128_TU_mc10_mvf008_sp005,chr1,85245911,G>T,36.36%,AA.AA,None
DT_usa_128_TU_mc10_mvf008_sp005,chr1,85637635,A>C,25%,AG.AG,None
DT_usa_128_TU_mc10_mvf008_sp005,chr1,111863782,T>A,24%,CC.TA,WA
DT_usa_128_TU_mc10_mvf008_sp005,chr1,128359481,G>T,25.81%,CA.CT,WRCY
DT_usa_128_TU_mc10_mvf008_sp005,chr1,156035900,C>T,22.92%,TG.CT,WRCY
DT_usa_128_TU_mc10_mvf008_sp005,chr1,156860381,G>A,50%,AG.AC,None
DT_usa_128_TU_mc10_mvf008_sp005,chr1,161859644,C>T,26.09%,TA.AC,None
DT_usa_128_TU_mc10_mvf008_sp005,chr1,170927354,C>T,30%,AG.AG,None
DT_usa_128_TU_mc10_mvf008_sp005,chr10,43579437,G>A,36.36%,GG.GG,None
DT_usa_128_TU_mc10_mvf008_sp005,chr10,54074325,C>T,22.52%,TG.AT,None
DT_usa_128_TU_mc10_mvf008_sp005,chr10,54074505,G>A,29.06%,GG.CA,WRCY
DT_usa_128_TU_mc10_mvf008_sp005,chr10,80931090,G>A,42.17%,TC.CT,RCG
DT_usa_128_TU_mc10_mvf008_sp005,chr10,96618526,C>T,38.03%,AG.AC,None
DT_usa_128_TU_mc10_mvf008_sp005,chr10,96618559,C>T,37.5%,GA.AG,None
DT_usa_128_TU_mc10_mvf008_sp005,chr10,129350405,G>A,30%,AT.AA,None
DT_usa_128_TU_mc10_mvf008_sp005,chr11,28339853,C>T,48.42%,TA.CT,WRCY
DT_usa_128_TU_mc10_mvf008_sp005,chr11,29197193,C>G,49.62%,AG.CC,WRCY
DT_usa_128_TU_mc10_mvf008_sp005,chr11,30952393,A>G,46.43%,AG.TT,None
DT_usa_128_TU_mc10_mvf008_sp005,chr11,46407472,C>T,28.21%,AG.CG,WRCY
DT_usa_128_TU_mc10_mvf008_sp005,chr11,53397665,G>T,35.71%,TT.TT,None
DT_usa_128_TU_mc10_mvf008_sp005,chr11,78077650,G>T,23.53%,TT.TT,None
DT_usa_128_TU_mc10_mvf008_sp005,chr11,86585440,C>T,34.45%,AA.CA,WRCY
DT_usa_128_TU_mc10_mvf008_sp005,chr11,86586392,C>A,46.15%,GA.CA,WRCY
DT_usa_128_TU_mc10_mvf008_sp005,chr11,87756881,C>A,48%,AG.AC,None
DT_usa_128_TU_mc10_mvf008_sp005,chr11,87756913,C>T,45.45%,TT.CT,None
DT_usa_128_TU_mc10_mvf008_sp005,chr11,87756931,G>A,39.39%,GT.CA,None
DT_usa_128_TU_mc10_mvf008_sp005,chr11,87756932,C>A,30.3%,TG.AC,None
DT_usa_128_TU_mc10_mvf008_sp005,chr11,87756988,C>T,30.77%,CT.CA,None
DT_usa_128_TU_mc10_mvf008_sp005,chr11,87757005,G>T,30.43%,CA.GT,None
DT_usa_128_TU_mc10_mvf008_sp005,chr11,106312659,C>T,28.57%,AG.TG,WRCY
DT_usa_128_TU_mc10_mvf008_sp005,chr11,106313738,G>A,35.48%,GG.CT,WRCY
DT_usa_128_TU_mc10_mvf008_sp005,chr11,116852265,G>A,40.62%,TA.CG,WRCY
DT_usa_128_TU_mc10_mvf008_sp005,chr12,102369382,C>T,41.86%,AG.TG,WRCY
DT_usa_128_TU_mc10_mvf008_sp005,chr12,113153046,C>T,36.36%,AA.AA,None
DT_usa_128_TU_mc10_mvf008_sp005,chr12,113153222,G>A,27.69%,GT.CA,None
DT_usa_128_TU_mc10_mvf008_sp005,chr12,113153467,C>T,31.97%,AG.CC,WRCY
DT_usa_128_TU_mc10_mvf008_sp005,chr12,113153636,C>T,23.58%,AG.TG,WRCY
DT_usa_128_TU_mc10_mvf008_sp005,chr12,113256260,C>T,29.47%,TG.TG,WRCY
DT_usa_128_TU_mc10_mvf008_sp005,chr12,113359758,C>T,25.81%,AA.CA,WRCY
DT_usa_128_TU_mc10_mvf008_sp005,chr12,113359759,C>A,27.87%,AC.AA,None
DT_usa_128_TU_mc10_mvf008_sp005,chr12,113360271,C>A,33.7%,TA.TT,WRCY
DT_usa_128_TU_mc10_mvf008_sp005,chr12,113360842,C>A,27.78%,TG.CT,WRCY
DT_usa_128_TU_mc10_mvf008_sp005,chr12,113360862,C>A,31.58%,TT.AG,None
DT_usa_128_TU_mc10_mvf008_sp005,chr12,113361055,C>G,33.33%,AC.CA,None
DT_usa_128_TU_mc10_mvf008_sp005,chr12,113361128,G>A,35.16%,CG.CT,WRCY
DT_usa_128_TU_mc10_mvf008_sp005,chr12,113361175,C>T,25.35%,AT.CA,None
DT_usa_128_TU_mc10_mvf008_sp005,chr12,113361229,G>C,31.82%,TT.TA,None
DT_usa_128_TU_mc10_mvf008_sp005,chr12,113361269,C>T,31.37%,AG.TG,WRCY
DT_usa_128_TU_mc10_mvf008_sp005,chr12,113361361,G>A,31.58%,GG.CA,WRCY
DT_usa_128_TU_mc10_mvf008_sp005,chr12,113361372,C>G,29.41%,AG.AA,None
DT_usa_128_TU_mc10_mvf008_sp005,chr12,113428401,C>T,33.33%,TT.CC,None
DT_usa_128_TU_mc10_mvf008_sp005,chr12,113428402,C>A,33.33%,TC.CA,None
DT_usa_128_TU_mc10_mvf008_sp005,chr12,113428416,C>T,25%,AG.CG,WRCY
DT_usa_128_TU_mc10_mvf008_sp005,chr12,113428533,G>A,40.54%,GA.GT,None
DT_usa_128_TU_mc10_mvf008_sp005,chr12,113428534,G>C,37.84%,AG.TT,WRCY
DT_usa_128_TU_mc10_mvf008_sp005,chr12,113428604,C>T,20%,AA.CC,WRCY
DT_usa_128_TU_mc10_mvf008_sp005,chr12,113428717,G>A,50%,GT.CA,None
DT_usa_128_TU_mc10_mvf008_sp005,chr12,113428733,C>T,41.67%,AC.CC,None
DT_usa_128_TU_mc10_mvf008_sp005,chr12,113428767,C>T,40%,AG.CT,WRCY
DT_usa_128_TU_mc10_mvf008_sp005,chr12,113482306,G>A,41.67%,GA.TT,WRCY
DT_usa_128_TU_mc10_mvf008_sp005,chr12,114391930,G>A,22.02%,GT.AA,None
DT_usa_128_TU_mc10_mvf008_sp005,chr12,114392002,C>T,23.27%,AG.TT,WRCY
DT_usa_128_TU_mc10_mvf008_sp005,chr12,114392038,C>T,24.69%,AA.CC,WRCY
DT_usa_128_TU_mc10_mvf008_sp005,chr13,21715678,C>T,26.27%,AA.CA,WRCY
DT_usa_128_TU_mc10_mvf008_sp005,chr13,21715752,G>A,30.81%,GA.TT,WRCY
DT_usa_128_TU_mc10_mvf008_sp005,chr13,21716551,G>A,34.38%,GC.TG,RCG
DT_usa_128_TU_mc10_mvf008_sp005,chr13,21717919,C>T,30.32%,AG.TC,WRCY
DT_usa_128_TU_mc10_mvf008_sp005,chr13,21753572,G>A,31%,CA.CT,WRCY
DT_usa_128_TU_mc10_mvf008_sp005,chr13,21754272,C>T,28.15%,CA.CC,WRCY
DT_usa_128_TU_mc10_mvf008_sp005,chr13,21754273,C>T,28.37%,AC.CC,None
DT_usa_128_TU_mc10_mvf008_sp005,chr13,21780165,C>T,30.25%,GG.TT,WRCY
DT_usa_128_TU_mc10_mvf008_sp005,chr13,21780416,C>T,27.27%,AG.CT,WRCY
DT_usa_128_TU_mc10_mvf008_sp005,chr13,21782921,G>A,31.98%,GG.CT,WRCY
DT_usa_128_TU_mc10_mvf008_sp005,chr13,21786963,G>A,33.52%,CA.CT,WRCY
DT_usa_128_TU_mc10_mvf008_sp005,chr13,21812031,C>T,30.61%,CA.CG,WRCY
DT_usa_128_TU_mc10_mvf008_sp005,chr13,21812047,C>T,32.69%,GT.TA,None
DT_usa_128_TU_mc10_mvf008_sp005,chr13,21812166,G>C,30.09%,GG.TT,WRCY
DT_usa_128_TU_mc10_mvf008_sp005,chr13,21812180,G>A,54.05%,CA.TA,WRCY
DT_usa_128_TU_mc10_mvf008_sp005,chr13,21812222,C>G,32.5%,TA.TT,WRCY
DT_usa_128_TU_mc10_mvf008_sp005,chr13,21812379,C>T,29.41%,TG.CT,WRCY
DT_usa_128_TU_mc10_mvf008_sp005,chr13,21831608,G>A,34%,GA.CT,WRCY
DT_usa_128_TU_mc10_mvf008_sp005,chr13,21831804,G>A,23.73%,CT.AA,None
DT_usa_128_TU_mc10_mvf008_sp005,chr13,22036366,G>A,24.12%,CG.CT,WRCY
DT_usa_128_TU_mc10_mvf008_sp005,chr13,22041024,C>G,24.73%,AA.CC,WRCY
DT_usa_128_TU_mc10_mvf008_sp005,chr13,22041150,C>T,32.44%,AG.AC,None
DT_usa_128_TU_mc10_mvf008_sp005,chr13,22041289,C>T,28.3%,TG.CC,WRCY
DT_usa_128_TU_mc10_mvf008_sp005,chr13,23534305,C>T,32.31%,AG.CA,WRCY
DT_usa_128_TU_mc10_mvf008_sp005,chr13,23542833,C>T,29.86%,AA.CA,WRCY
DT_usa_128_TU_mc10_mvf008_sp005,chr13,23543331,C>T,28.34%,AG.GG,RCG
DT_usa_128_TU_mc10_mvf008_sp005,chr13,23551509,C>T,29.21%,CG.TT,WRCY
DT_usa_128_TU_mc10_mvf008_sp005,chr13,23555231,G>A,37.5%,AG.CT,WRCY
DT_usa_128_TU_mc10_mvf008_sp005,chr13,23555232,C>A,23.08%,GG.TG,WRCY
DT_usa_128_TU_mc10_mvf008_sp005,chr13,23555251,G>A,35.65%,GA.CG,WRCY
DT_usa_128_TU_mc10_mvf008_sp005,chr13,23555276,C>G,26.17%,CG.TC,WRCY
DT_usa_128_TU_mc10_mvf008_sp005,chr13,23555336,C>T,29.41%,AG.TC,WRCY
DT_usa_128_TU_mc10_mvf008_sp005,chr13,23555526,C>T,32.26%,TG.CA,WRCY
DT_usa_128_TU_mc10_mvf008_sp005,chr13,23555661,C>T,33.94%,AG.CA,WRCY
DT_usa_128_TU_mc10_mvf008_sp005,chr13,23556113,C>T,29.73%,CT.TC,None
DT_usa_128_TU_mc10_mvf008_sp005,chr13,23570948,G>A,31.23%,CG.CC,WRCY
DT_usa_128_TU_mc10_mvf008_sp005,chr13,23576091,G>A,23.86%,GA.CG,WRCY
DT_usa_128_TU_mc10_mvf008_sp005,chr13,23585480,G>A,31.78%,TG.TA,WRCY
DT_usa_128_TU_mc10_mvf008_sp005,chr13,23585613,C>T,26.82%,TG.CC,WRCY
DT_usa_128_TU_mc10_mvf008_sp005,chr13,23621867,G>A,27.03%,TG.CT,WRCY
DT_usa_128_TU_mc10_mvf008_sp005,chr13,23621873,C>A,33.33%,AG.TG,WRCY
DT_usa_128_TU_mc10_mvf008_sp005,chr13,23621982,G>A,29.67%,GG.CT,WRCY
DT_usa_128_TU_mc10_mvf008_sp005,chr13,23621998,G>A,29.21%,TG.CT,WRCY
DT_usa_128_TU_mc10_mvf008_sp005,chr13,23622064,G>A,24.68%,TG.CT,WRCY
DT_usa_128_TU_mc10_mvf008_sp005,chr13,23622151,G>T,33.33%,TA.CC,WRCY
DT_usa_128_TU_mc10_mvf008_sp005,chr13,23622164,C>T,28.75%,AG.CG,WRCY
DT_usa_128_TU_mc10_mvf008_sp005,chr13,23622254,G>C,26.19%,GA.CT,WRCY
DT_usa_128_TU_mc10_mvf008_sp005,chr13,23622394,G>A,22.22%,AG.TT,WRCY
DT_usa_128_TU_mc10_mvf008_sp005,chr13,23683491,C>T,28.16%,AG.CT,WRCY
DT_usa_128_TU_mc10_mvf008_sp005,chr13,23698174,C>T,28.84%,CG.TT,WRCY
DT_usa_128_TU_mc10_mvf008_sp005,chr13,23739091,G>A,44.44%,AA.CT,WRCY
DT_usa_128_TU_mc10_mvf008_sp005,chr13,23739141,G>T,36.36%,GG.CA,WRCY
DT_usa_128_TU_mc10_mvf008_sp005,chr13,23739219,G>A,36.59%,AG.CG,WRCY
DT_usa_128_TU_mc10_mvf008_sp005,chr13,23739349,C>T,32.76%,AC.AA,None
DT_usa_128_TU_mc10_mvf008_sp005,chr13,23739571,G>C,42.27%,AA.CA,WRCY
DT_usa_128_TU_mc10_mvf008_sp005,chr13,23751423,G>A,30.69%,CT.CT,None
DT_usa_128_TU_mc10_mvf008_sp005,chr13,23760754,C>T,26.61%,AG.TG,WRCY
DT_usa_128_TU_mc10_mvf008_sp005,chr13,23761915,T>A,39.77%,AA.TC,WA
DT_usa_128_TU_mc10_mvf008_sp005,chr13,23762006,C>T,36.96%,CG.TT,WRCY
DT_usa_128_TU_mc10_mvf008_sp005,chr13,23762381,G>A,26.44%,GA.CA,WRCY
DT_usa_128_TU_mc10_mvf008_sp005,chr13,23764143,G>A,23.86%,CA.CT,WRCY
DT_usa_128_TU_mc10_mvf008_sp005,chr13,24614672,G>A,33.33%,CA.CT,WRCY
DT_usa_128_TU_mc10_mvf008_sp005,chr13,73572642,A>G,24.39%,AG.TA,None
DT_usa_128_TU_mc10_mvf008_sp005,chr13,98814952,G>A,46.15%,GA.CT,WRCY
DT_usa_128_TU_mc10_mvf008_sp005,chr14,3138061,G>C,100%,CC.AC,None
DT_usa_128_TU_mc10_mvf008_sp005,chr14,4131739,A>T,100%,AC.CC,None
DT_usa_128_TU_mc10_mvf008_sp005,chr14,42849912,G>T,31.25%,TA.TA,WRCY
DT_usa_128_TU_mc10_mvf008_sp005,chr14,47703349,C>T,60%,TA.CT,WRCY
DT_usa_128_TU_mc10_mvf008_sp005,chr14,52810904,G>A,100%,AC.AT,None
DT_usa_128_TU_mc10_mvf008_sp005,chr14,53845933,A>G,100%,AC.TA,None
DT_usa_128_TU_mc10_mvf008_sp005,chr14,55540274,C>G,100%,CC.GG,None
DT_usa_128_TU_mc10_mvf008_sp005,chr14,56622220,C>T,100%,CA.GG,RCG
DT_usa_128_TU_mc10_mvf008_sp005,chr14,70586204,G>T,100%,GA.CT,WRCY
DT_usa_128_TU_mc10_mvf008_sp005,chr14,72652271,G>A,25%,AA.AA,None
DT_usa_128_TU_mc10_mvf008_sp005,chr14,75727727,G>A,99.48%,CT.GC,None
DT_usa_128_TU_mc10_mvf008_sp005,chr14,113316227,G>T,34.78%,GA.AC,None
DT_usa_128_TU_mc10_mvf008_sp005,chr15,59081455,C>T,26.92%,TA.CT,WRCY
DT_usa_128_TU_mc10_mvf008_sp005,chr15,74957746,C>T,20.37%,AG.CT,WRCY
DT_usa_128_TU_mc10_mvf008_sp005,chr15,74957846,G>A,21.39%,GT.CT,None
DT_usa_128_TU_mc10_mvf008_sp005,chr15,74958376,G>T,20.87%,CC.CT,RCG
DT_usa_128_TU_mc10_mvf008_sp005,chr15,74958509,C>T,29.49%,GG.TA,WRCY
DT_usa_128_TU_mc10_mvf008_sp005,chr15,79892511,G>A,23.08%,GA.CT,WRCY
DT_usa_128_TU_mc10_mvf008_sp005,chr15,79892516,G>A,21.93%,GG.AT,None
DT_usa_128_TU_mc10_mvf008_sp005,chr15,79895389,G>A,26.42%,CT.TT,None
DT_usa_128_TU_mc10_mvf008_sp005,chr15,79895404,C>T,31.78%,TG.TT,WRCY
DT_usa_128_TU_mc10_mvf008_sp005,chr15,82224097,C>T,21.88%,AG.AG,None
DT_usa_128_TU_mc10_mvf008_sp005,chr15,103240864,C>T,26.32%,TG.CC,WRCY
DT_usa_128_TU_mc10_mvf008_sp005,chr16,19061605,G>A,65.22%,AA.CT,WRCY
DT_usa_128_TU_mc10_mvf008_sp005,chr16,19061669,G>A,71.43%,GG.CT,WRCY
DT_usa_128_TU_mc10_mvf008_sp005,chr16,19061708,G>A,33.63%,AT.TT,None
DT_usa_128_TU_mc10_mvf008_sp005,chr16,19061822,C>G,55.45%,AA.TG,WRCY
DT_usa_128_TU_mc10_mvf008_sp005,chr16,19061840,G>A,69.01%,AT.CT,None
DT_usa_128_TU_mc10_mvf008_sp005,chr16,19061847,C>T,37.96%,TG.TG,WRCY
DT_usa_128_TU_mc10_mvf008_sp005,chr16,19061906,G>A,24.14%,GG.TT,WRCY
DT_usa_128_TU_mc10_mvf008_sp005,chr16,19061936,C>T,22.41%,TA.CA,WRCY
DT_usa_128_TU_mc10_mvf008_sp005,chr16,19061944,C>T,46.22%,AC.TT,None
DT_usa_128_TU_mc10_mvf008_sp005,chr16,19061966,C>T,42.31%,CA.CT,WRCY
DT_usa_128_TU_mc10_mvf008_sp005,chr16,19062222,G>A,56.25%,GT.TT,None
DT_usa_128_TU_mc10_mvf008_sp005,chr16,19062234,C>T,57.14%,TG.TT,WRCY
DT_usa_128_TU_mc10_mvf008_sp005,chr16,19063036,G>A,27.27%,CT.TG,None
DT_usa_128_TU_mc10_mvf008_sp005,chr16,19063116,C>G,27.5%,TA.CT,WRCY
DT_usa_128_TU_mc10_mvf008_sp005,chr16,19065269,G>A,25%,GG.CA,WRCY
DT_usa_128_TU_mc10_mvf008_sp005,chr16,19065275,G>A,39.62%,GA.AT,None
DT_usa_128_TU_mc10_mvf008_sp005,chr16,19065344,G>A,35.29%,AG.CT,WRCY
DT_usa_128_TU_mc10_mvf008_sp005,chr16,19065349,G>T,32.82%,AA.GA,None
DT_usa_128_TU_mc10_mvf008_sp005,chr16,19065361,G>A,31.91%,GG.CT,WRCY
DT_usa_128_TU_mc10_mvf008_sp005,chr16,19065476,G>T,33.79%,AA.CT,WRCY
DT_usa_128_TU_mc10_mvf008_sp005,chr16,19065511,G>A,24.76%,GG.AT,None
DT_usa_128_TU_mc10_mvf008_sp005,chr16,19065612,G>A,33.75%,TG.CT,WRCY
DT_usa_128_TU_mc10_mvf008_sp005,chr16,19065658,G>A,31.54%,GA.TG,WRCY
DT_usa_128_TU_mc10_mvf008_sp005,chr16,19065676,G>A,31.58%,GG.CT,WRCY
DT_usa_128_TU_mc10_mvf008_sp005,chr16,19066174,C>T,25.93%,AT.CA,None
DT_usa_128_TU_mc10_mvf008_sp005,chr16,19066215,C>T,40%,TG.AC,None
DT_usa_128_TU_mc10_mvf008_sp005,chr16,19066217,C>T,33.33%,CA.AT,None
DT_usa_128_TU_mc10_mvf008_sp005,chr16,19066282,G>A,34.78%,GA.CA,WRCY
DT_usa_128_TU_mc10_mvf008_sp005,chr16,19066310,G>A,35.66%,AA.CA,WRCY
DT_usa_128_TU_mc10_mvf008_sp005,chr16,19066449,G>A,30.67%,GG.CT,WRCY
DT_usa_128_TU_mc10_mvf008_sp005,chr16,19066512,C>G,30.85%,TA.TC,WRCY
DT_usa_128_TU_mc10_mvf008_sp005,chr16,19066897,C>T,48.21%,AC.TC,None
DT_usa_128_TU_mc10_mvf008_sp005,chr16,19067221,G>A,40.91%,AG.CT,WRCY
DT_usa_128_TU_mc10_mvf008_sp005,chr16,19085113,G>A,33.67%,GA.CC,WRCY
DT_usa_128_TU_mc10_mvf008_sp005,chr16,19198460,G>A,42.59%,TA.CT,WRCY
DT_usa_128_TU_mc10_mvf008_sp005,chr16,19198752,G>A,33.33%,GG.GA,None
DT_usa_128_TU_mc10_mvf008_sp005,chr16,19198982,G>A,35.29%,TA.TT,WRCY
DT_usa_128_TU_mc10_mvf008_sp005,chr16,19199052,C>T,28.57%,TC.TT,None
DT_usa_128_TU_mc10_mvf008_sp005,chr16,19199074,C>A,35.71%,AT.AG,None
DT_usa_128_TU_mc10_mvf008_sp005,chr16,19199701,G>A,33.33%,GT.CT,None
DT_usa_128_TU_mc10_mvf008_sp005,chr16,19200000,G>A,33.33%,GA.AT,None
DT_usa_128_TU_mc10_mvf008_sp005,chr16,19200023,G>A,33.33%,AT.TA,None
DT_usa_128_TU_mc10_mvf008_sp005,chr16,19200029,C>T,33.33%,AG.CA,WRCY
DT_usa_128_TU_mc10_mvf008_sp005,chr16,19200053,C>T,43.4%,TT.TT,None
DT_usa_128_TU_mc10_mvf008_sp005,chr16,19200161,G>A,35.75%,GG.CT,WRCY
DT_usa_128_TU_mc10_mvf008_sp005,chr16,19200182,C>T,34.54%,AG.TT,WRCY
DT_usa_128_TU_mc10_mvf008_sp005,chr16,19241082,C>T,40.91%,TG.TA,WRCY
DT_usa_128_TU_mc10_mvf008_sp005,chr16,19241287,C>T,29.31%,TG.TA,WRCY
DT_usa_128_TU_mc10_mvf008_sp005,chr16,19241439,C>T,34.31%,TG.TG,WRCY
DT_usa_128_TU_mc10_mvf008_sp005,chr16,21080419,T>C,30.56%,TC.TG,WA
DT_usa_128_TU_mc10_mvf008_sp005,chr16,32979335,G>C,21.43%,CT.TG,None
DT_usa_128_TU_mc10_mvf008_sp005,chr16,58449873,G>T,56.15%,TT.CA,None
DT_usa_128_TU_mc10_mvf008_sp005,chr17,6957925,G>A,34.29%,TA.GA,None
DT_usa_128_TU_mc10_mvf008_sp005,chr17,13306098,G>T,21.05%,CT.TC,None
DT_usa_128_TU_mc10_mvf008_sp005,chr17,13590004,T>C,54.55%,CA.AG,WA
DT_usa_128_TU_mc10_mvf008_sp005,chr17,23347593,T>C,50%,GT.TC,WA
DT_usa_128_TU_mc10_mvf008_sp005,chr17,25829952,C>T,36.36%,TA.TT,WRCY
DT_usa_128_TU_mc10_mvf008_sp005,chr17,28329433,G>A,35.95%,CT.TG,None
DT_usa_128_TU_mc10_mvf008_sp005,chr17,29491314,C>T,46.27%,GC.TC,None
DT_usa_128_TU_mc10_mvf008_sp005,chr17,29491444,C>T,36.9%,AA.GC,RCG
DT_usa_128_TU_mc10_mvf008_sp005,chr17,29491543,G>A,28.57%,AA.GA,None
DT_usa_128_TU_mc10_mvf008_sp005,chr17,29491830,C>T,34%,AA.GA,RCG
DT_usa_128_TU_mc10_mvf008_sp005,chr17,34264758,C>T,35%,CG.AG,None
DT_usa_128_TU_mc10_mvf008_sp005,chr17,34306099,C>G,41.89%,AG.TA,WRCY
DT_usa_128_TU_mc10_mvf008_sp005,chr17,34896410,C>T,43.08%,GG.AT,None
DT_usa_128_TU_mc10_mvf008_sp005,chr17,35001674,G>A,22.22%,CA.CT,WRCY
DT_usa_128_TU_mc10_mvf008_sp005,chr17,35263641,C>T,32.17%,AG.GC,RCG
DT_usa_128_TU_mc10_mvf008_sp005,chr17,47594835,G>A,32.26%,CA.CT,WRCY
DT_usa_128_TU_mc10_mvf008_sp005,chr17,72918587,C>T,28.07%,AT.CT,None
DT_usa_128_TU_mc10_mvf008_sp005,chr17,84187118,C>A,26.09%,AG.AT,None
DT_usa_128_TU_mc10_mvf008_sp005,chr17,84187525,C>T,28.85%,TT.CC,None
DT_usa_128_TU_mc10_mvf008_sp005,chr18,16624452,C>A,54.55%,AA.AA,None
DT_usa_128_TU_mc10_mvf008_sp005,chr18,56469359,G>A,33.33%,CA.CT,WRCY
DT_usa_128_TU_mc10_mvf008_sp005,chr18,60804609,C>T,23.02%,TG.CA,WRCY
DT_usa_128_TU_mc10_mvf008_sp005,chr18,78012811,C>T,52.63%,CC.GC,None
DT_usa_128_TU_mc10_mvf008_sp005,chr18,80029333,A>C,34.29%,CC.CC,None
DT_usa_128_TU_mc10_mvf008_sp005,chr18,84947472,G>A,46.15%,TG.TT,WRCY
DT_usa_128_TU_mc10_mvf008_sp005,chr19,6116647,C>T,20.69%,TA.CT,WRCY
DT_usa_128_TU_mc10_mvf008_sp005,chr19,44069496,C>T,34.62%,AG.CC,WRCY
DT_usa_128_TU_mc10_mvf008_sp005,chr2,26061681,G>A,38.89%,GG.AT,None
DT_usa_128_TU_mc10_mvf008_sp005,chr2,26911513,G>A,29.34%,AA.CG,WRCY
DT_usa_128_TU_mc10_mvf008_sp005,chr2,67506853,G>T,40%,CT.TT,None
DT_usa_128_TU_mc10_mvf008_sp005,chr2,120266642,C>T,37.5%,CA.GT,RCG
DT_usa_128_TU_mc10_mvf008_sp005,chr2,124655538,C>T,27.55%,CC.GT,None
DT_usa_128_TU_mc10_mvf008_sp005,chr2,127336502,C>T,40%,AG.TG,WRCY
DT_usa_128_TU_mc10_mvf008_sp005,chr2,130240361,T>A,40.91%,TG.GA,None
DT_usa_128_TU_mc10_mvf008_sp005,chr3,36908472,C>T,30.77%,TT.CC,None
DT_usa_128_TU_mc10_mvf008_sp005,chr3,58525434,C>T,35.77%,CG.TG,WRCY
DT_usa_128_TU_mc10_mvf008_sp005,chr3,58525631,C>T,37.93%,AA.AC,None
DT_usa_128_TU_mc10_mvf008_sp005,chr3,86142016,C>T,31.25%,AG.CA,WRCY
DT_usa_128_TU_mc10_mvf008_sp005,chr3,90255128,T>C,36.05%,AC.TG,WA
DT_usa_128_TU_mc10_mvf008_sp005,chr3,95659587,C>T,40.74%,CG.CC,WRCY
DT_usa_128_TU_mc10_mvf008_sp005,chr3,95659596,C>T,32.14%,GG.TG,WRCY
DT_usa_128_TU_mc10_mvf008_sp005,chr3,95659660,C>T,28.3%,CT.TA,None
DT_usa_128_TU_mc10_mvf008_sp005,chr3,95659926,G>A,37.63%,AA.CT,WRCY
DT_usa_128_TU_mc10_mvf008_sp005,chr3,95660639,C>T,39.22%,TT.TC,None
DT_usa_128_TU_mc10_mvf008_sp005,chr3,95660763,G>A,35.14%,GT.CT,None
DT_usa_128_TU_mc10_mvf008_sp005,chr3,96220560,G>A,28.07%,TT.TT,None
DT_usa_128_TU_mc10_mvf008_sp005,chr3,96220642,C>T,29.01%,TG.CC,WRCY
DT_usa_128_TU_mc10_mvf008_sp005,chr3,96221842,G>A,23.67%,AG.CT,WRCY
DT_usa_128_TU_mc10_mvf008_sp005,chr3,96238682,C>T,22%,AG.TC,WRCY
DT_usa_128_TU_mc10_mvf008_sp005,chr3,96239809,G>A,45.24%,GA.CT,WRCY
DT_usa_128_TU_mc10_mvf008_sp005,chr3,96239850,C>T,27.59%,AG.AG,None
DT_usa_128_TU_mc10_mvf008_sp005,chr3,96239872,C>A,28.12%,CG.CT,WRCY
DT_usa_128_TU_mc10_mvf008_sp005,chr3,96240055,G>A,47.73%,CA.CT,WRCY
DT_usa_128_TU_mc10_mvf008_sp005,chr3,96240228,C>T,35.29%,CT.CT,None
DT_usa_128_TU_mc10_mvf008_sp005,chr3,96245746,C>T,30.77%,TG.TG,WRCY
DT_usa_128_TU_mc10_mvf008_sp005,chr3,96245755,C>T,41.18%,AC.TA,None
DT_usa_128_TU_mc10_mvf008_sp005,chr3,96245865,C>T,44.44%,AA.AA,None
DT_usa_128_TU_mc10_mvf008_sp005,chr3,96245905,C>T,30.77%,TC.TG,None
DT_usa_128_TU_mc10_mvf008_sp005,chr3,96245932,C>T,67.74%,TG.CC,WRCY
DT_usa_128_TU_mc10_mvf008_sp005,chr3,96245948,G>C,27.59%,GA.CC,WRCY
DT_usa_128_TU_mc10_mvf008_sp005,chr3,96245970,G>C,37.14%,AA.TG,WRCY
DT_usa_128_TU_mc10_mvf008_sp005,chr3,96246021,G>A,40%,GA.CT,WRCY
DT_usa_128_TU_mc10_mvf008_sp005,chr3,96246022,C>A,25%,AG.TC,WRCY
DT_usa_128_TU_mc10_mvf008_sp005,chr3,96246046,C>T,38.98%,AG.CA,WRCY
DT_usa_128_TU_mc10_mvf008_sp005,chr3,96268953,G>A,24.65%,GA.CT,WRCY
DT_usa_128_TU_mc10_mvf008_sp005,chr3,96270164,C>T,34.72%,TA.CC,WRCY
DT_usa_128_TU_mc10_mvf008_sp005,chr3,96270242,G>A,44.83%,AG.TT,WRCY
DT_usa_128_TU_mc10_mvf008_sp005,chr3,96270265,C>T,60%,TA.CC,WRCY
DT_usa_128_TU_mc10_mvf008_sp005,chr3,100093776,T>C,21.43%,TG.CA,None
DT_usa_128_TU_mc10_mvf008_sp005,chr3,107967756,C>A,25.52%,AA.CC,WRCY
DT_usa_128_TU_mc10_mvf008_sp005,chr3,123507986,C>T,25.24%,AG.TT,WRCY
DT_usa_128_TU_mc10_mvf008_sp005,chr3,132621674,G>C,35.29%,CT.CT,None
DT_usa_128_TU_mc10_mvf008_sp005,chr3,136670901,G>A,23.91%,AA.GT,None
DT_usa_128_TU_mc10_mvf008_sp005,chr3,136670902,G>T,24.44%,AG.TA,WRCY
DT_usa_128_TU_mc10_mvf008_sp005,chr4,34714347,G>A,24.14%,TC.TA,RCG
DT_usa_128_TU_mc10_mvf008_sp005,chr4,44691846,G>C,40.32%,GA.CT,WRCY
DT_usa_128_TU_mc10_mvf008_sp005,chr4,44710276,C>T,28.21%,TT.TT,None
DT_usa_128_TU_mc10_mvf008_sp005,chr4,44710307,C>T,36.96%,AG.AC,None
DT_usa_128_TU_mc10_mvf008_sp005,chr4,44710489,C>T,41.67%,TT.TT,None
DT_usa_128_TU_mc10_mvf008_sp005,chr4,45046529,T>A,63.64%,TG.GA,None
DT_usa_128_TU_mc10_mvf008_sp005,chr4,58809921,T>C,30.77%,TG.CC,None
DT_usa_128_TU_mc10_mvf008_sp005,chr4,86856116,C>T,33.51%,AA.AA,None
DT_usa_128_TU_mc10_mvf008_sp005,chr4,101845496,G>C,22.92%,TG.CA,WRCY
DT_usa_128_TU_mc10_mvf008_sp005,chr4,134164861,C>G,28.89%,AC.TA,None
DT_usa_128_TU_mc10_mvf008_sp005,chr4,146073680,T>C,22.64%,AT.AA,WA
DT_usa_128_TU_mc10_mvf008_sp005,chr4,146173832,C>T,40%,AG.CA,WRCY
DT_usa_128_TU_mc10_mvf008_sp005,chr4,146476365,A>G,28.57%,AA.CC,WA
DT_usa_128_TU_mc10_mvf008_sp005,chr4,147232182,G>A,22.58%,TG.CT,WRCY
DT_usa_128_TU_mc10_mvf008_sp005,chr5,15475628,A>C,26.09%,CA.CA,WA
DT_usa_128_TU_mc10_mvf008_sp005,chr5,15475638,A>G,27.27%,AA.TA,WA
DT_usa_128_TU_mc10_mvf008_sp005,chr5,25953018,A>C,36.02%,CC.CA,None
DT_usa_128_TU_mc10_mvf008_sp005,chr5,30926719,G>A,32.43%,CT.TG,None
DT_usa_128_TU_mc10_mvf008_sp005,chr5,35707124,C>T,41.3%,GA.GC,RCG
DT_usa_128_TU_mc10_mvf008_sp005,chr5,72247193,C>T,54.24%,GA.CT,WRCY
DT_usa_128_TU_mc10_mvf008_sp005,chr5,84386266,G>A,22.64%,GC.CG,RCG
DT_usa_128_TU_mc10_mvf008_sp005,chr5,92024779,A>G,50%,GT.TG,WA
DT_usa_128_TU_mc10_mvf008_sp005,chr5,96758142,T>C,46.67%,TC.GG,None
DT_usa_128_TU_mc10_mvf008_sp005,chr5,123394990,C>T,35.9%,TG.TG,WRCY
DT_usa_128_TU_mc10_mvf008_sp005,chr5,129787495,G>A,25.93%,GC.CT,RCG
DT_usa_128_TU_mc10_mvf008_sp005,chr5,142905267,G>A,29.41%,GG.TT,WRCY
DT_usa_128_TU_mc10_mvf008_sp005,chr6,47813289,C>T,26.19%,AG.TT,WRCY
DT_usa_128_TU_mc10_mvf008_sp005,chr6,48724101,C>G,34.72%,CG.GG,RCG
DT_usa_128_TU_mc10_mvf008_sp005,chr6,51467361,T>A,33.33%,CT.AA,WA
DT_usa_128_TU_mc10_mvf008_sp005,chr6,70457693,G>A,35.14%,CA.CA,WRCY
DT_usa_128_TU_mc10_mvf008_sp005,chr6,70572940,G>A,32.9%,GT.CT,None
DT_usa_128_TU_mc10_mvf008_sp005,chr6,70572951,C>T,32%,AT.TC,None
DT_usa_128_TU_mc10_mvf008_sp005,chr6,70573023,G>A,31.22%,TA.TT,WRCY
DT_usa_128_TU_mc10_mvf008_sp005,chr6,70573042,G>A,29.87%,AT.CA,None
DT_usa_128_TU_mc10_mvf008_sp005,chr6,70573073,C>T,26.74%,CA.CC,WRCY
DT_usa_128_TU_mc10_mvf008_sp005,chr6,70573184,G>A,25.85%,CT.AT,None
DT_usa_128_TU_mc10_mvf008_sp005,chr6,70722481,C>T,54.55%,AG.TT,WRCY
DT_usa_128_TU_mc10_mvf008_sp005,chr6,70722500,C>T,53.85%,TG.TC,WRCY
DT_usa_128_TU_mc10_mvf008_sp005,chr6,70722551,C>T,50.7%,TA.TA,WRCY
DT_usa_128_TU_mc10_mvf008_sp005,chr6,70722554,C>T,50.7%,TA.CA,WRCY
DT_usa_128_TU_mc10_mvf008_sp005,chr6,70722714,G>T,31.08%,AA.AT,None
DT_usa_128_TU_mc10_mvf008_sp005,chr6,70722715,A>T,30.26%,AG.TA,None
DT_usa_128_TU_mc10_mvf008_sp005,chr6,70722726,C>T,33.78%,AA.TC,WRCY
DT_usa_128_TU_mc10_mvf008_sp005,chr6,70722739,G>A,33.77%,AA.CT,WRCY
DT_usa_128_TU_mc10_mvf008_sp005,chr6,70722743,G>A,35.62%,TG.GA,None
DT_usa_128_TU_mc10_mvf008_sp005,chr6,70722783,G>T,41.25%,GT.TA,None
DT_usa_128_TU_mc10_mvf008_sp005,chr6,70722817,C>T,23.71%,TG.TC,WRCY
DT_usa_128_TU_mc10_mvf008_sp005,chr6,70722839,C>T,36.29%,TG.CC,WRCY
DT_usa_128_TU_mc10_mvf008_sp005,chr6,70722869,C>A,24.34%,GA.CA,WRCY
DT_usa_128_TU_mc10_mvf008_sp005,chr6,70722872,T>A,22.73%,CA.GC,None
DT_usa_128_TU_mc10_mvf008_sp005,chr6,70722913,G>A,27.47%,GT.TG,None
DT_usa_128_TU_mc10_mvf008_sp005,chr6,70722941,G>A,32.45%,AA.CT,WRCY
DT_usa_128_TU_mc10_mvf008_sp005,chr6,70722942,C>G,26.46%,AG.TG,WRCY
DT_usa_128_TU_mc10_mvf008_sp005,chr6,70722959,G>A,30.46%,AA.TA,WRCY
DT_usa_128_TU_mc10_mvf008_sp005,chr6,70722992,C>T,33.92%,AA.CT,WRCY
DT_usa_128_TU_mc10_mvf008_sp005,chr6,70723048,C>T,31.17%,AG.AA,None
DT_usa_128_TU_mc10_mvf008_sp005,chr6,70723148,C>T,65.32%,AA.TA,WRCY
DT_usa_128_TU_mc10_mvf008_sp005,chr6,70723268,C>A,30.54%,TA.AT,None
DT_usa_128_TU_mc10_mvf008_sp005,chr6,70723338,G>A,34.12%,TA.AT,None
DT_usa_128_TU_mc10_mvf008_sp005,chr6,70723361,C>T,30.05%,AA.CC,WRCY
DT_usa_128_TU_mc10_mvf008_sp005,chr6,70723368,C>T,35.16%,AA.TT,WRCY
DT_usa_128_TU_mc10_mvf008_sp005,chr6,70723515,G>A,29.68%,TT.TA,None
DT_usa_128_TU_mc10_mvf008_sp005,chr6,70723551,C>T,28%,TT.AC,None
DT_usa_128_TU_mc10_mvf008_sp005,chr6,70723553,C>T,28.57%,CA.GT,RCG
DT_usa_128_TU_mc10_mvf008_sp005,chr6,70723702,G>A,20.95%,AA.AT,None
DT_usa_128_TU_mc10_mvf008_sp005,chr6,70723735,G>C,21.59%,GA.CG,WRCY
DT_usa_128_TU_mc10_mvf008_sp005,chr6,70723736,C>T,62.92%,AG.GA,RCG
DT_usa_128_TU_mc10_mvf008_sp005,chr6,70723782,G>T,26.47%,AT.TA,None
DT_usa_128_TU_mc10_mvf008_sp005,chr6,70723794,G>A,41.9%,GA.CT,WRCY
DT_usa_128_TU_mc10_mvf008_sp005,chr6,70723886,G>A,58.04%,TG.CT,WRCY
DT_usa_128_TU_mc10_mvf008_sp005,chr6,70723916,G>A,24.82%,GA.CT,WRCY
DT_usa_128_TU_mc10_mvf008_sp005,chr6,70723924,G>A,28.57%,AC.TA,RCG
DT_usa_128_TU_mc10_mvf008_sp005,chr6,70724013,G>A,38.55%,AT.GA,None
DT_usa_128_TU_mc10_mvf008_sp005,chr6,70724031,G>A,26.76%,CA.TT,WRCY
DT_usa_128_TU_mc10_mvf008_sp005,chr6,70724071,C>T,31.25%,AG.TA,WRCY
DT_usa_128_TU_mc10_mvf008_sp005,chr6,70726631,C>T,26.28%,TA.AG,None
DT_usa_128_TU_mc10_mvf008_sp005,chr6,86525716,G>A,23.53%,TG.CA,WRCY
DT_usa_128_TU_mc10_mvf008_sp005,chr6,87009943,G>C,30.77%,TA.TC,WRCY
DT_usa_128_TU_mc10_mvf008_sp005,chr6,108829099,G>A,34.29%,CA.CT,WRCY
DT_usa_128_TU_mc10_mvf008_sp005,chr6,123851806,C>A,25.93%,GA.TT,WRCY
DT_usa_128_TU_mc10_mvf008_sp005,chr6,129180710,G>A,30.67%,AT.CT,None
DT_usa_128_TU_mc10_mvf008_sp005,chr6,129183147,G>A,39.57%,AA.CT,WRCY
DT_usa_128_TU_mc10_mvf008_sp005,chr6,129183182,C>T,34.92%,CA.TG,WRCY
DT_usa_128_TU_mc10_mvf008_sp005,chr6,129184134,G>A,32.4%,TA.CA,WRCY
DT_usa_128_TU_mc10_mvf008_sp005,chr6,129184232,C>T,28.32%,TA.CC,WRCY
DT_usa_128_TU_mc10_mvf008_sp005,chr6,129184250,C>A,20.3%,TT.GC,None
DT_usa_128_TU_mc10_mvf008_sp005,chr6,129184589,C>T,21.62%,TG.TG,WRCY
DT_usa_128_TU_mc10_mvf008_sp005,chr6,129185122,C>T,52.63%,TC.TG,None
DT_usa_128_TU_mc10_mvf008_sp005,chr6,129185900,C>T,33.64%,TA.CT,WRCY
DT_usa_128_TU_mc10_mvf008_sp005,chr6,136804171,G>A,29.73%,CG.CG,WRCY
DT_usa_128_TU_mc10_mvf008_sp005,chr6,136804242,G>A,34.67%,AT.CG,None
DT_usa_128_TU_mc10_mvf008_sp005,chr6,136922334,T>A,40%,AA.AA,WA
DT_usa_128_TU_mc10_mvf008_sp005,chr6,139957599,C>T,59.38%,GA.GC,RCG
DT_usa_128_TU_mc10_mvf008_sp005,chr6,140633939,G>T,33.33%,TG.TT,WRCY
DT_usa_128_TU_mc10_mvf008_sp005,chr6,141923248,T>A,33.33%,AA.TT,WA
DT_usa_128_TU_mc10_mvf008_sp005,chr6,145246710,A>G,48.39%,TC.TA,None
DT_usa_128_TU_mc10_mvf008_sp005,chr6,145863050,G>A,26.67%,GG.AA,None
DT_usa_128_TU_mc10_mvf008_sp005,chr6,145863587,C>T,37.5%,TG.AG,None
DT_usa_128_TU_mc10_mvf008_sp005,chr6,145863633,C>T,35.48%,AG.TC,WRCY
DT_usa_128_TU_mc10_mvf008_sp005,chr6,145863940,G>C,36.84%,CA.CC,WRCY
DT_usa_128_TU_mc10_mvf008_sp005,chr7,17793262,T>A,28.57%,AA.AA,WA
DT_usa_128_TU_mc10_mvf008_sp005,chr7,43409135,C>T,25.86%,AA.CT,WRCY
DT_usa_128_TU_mc10_mvf008_sp005,chr7,44622817,T>A,46.67%,TG.GA,None
DT_usa_128_TU_mc10_mvf008_sp005,chr7,60133282,G>T,54.29%,CT.TG,None
DT_usa_128_TU_mc10_mvf008_sp005,chr7,80215843,C>T,38.1%,AG.AG,None
DT_usa_128_TU_mc10_mvf008_sp005,chr7,81344876,G>A,28.81%,AA.CT,WRCY
DT_usa_128_TU_mc10_mvf008_sp005,chr7,83648591,C>T,42.11%,TA.AC,None
DT_usa_128_TU_mc10_mvf008_sp005,chr7,101109135,C>T,37.5%,TT.CC,None
DT_usa_128_TU_mc10_mvf008_sp005,chr7,110628142,C>T,38.24%,AG.TG,WRCY
DT_usa_128_TU_mc10_mvf008_sp005,chr7,110628870,G>A,35.43%,GA.CG,WRCY
DT_usa_128_TU_mc10_mvf008_sp005,chr7,110629168,G>A,37.93%,TA.GT,None
DT_usa_128_TU_mc10_mvf008_sp005,chr7,111081677,G>A,30.61%,GA.CT,WRCY
DT_usa_128_TU_mc10_mvf008_sp005,chr7,122289409,G>A,20%,CC.CA,RCG
DT_usa_128_TU_mc10_mvf008_sp005,chr7,123022423,C>G,25%,AG.AG,None
DT_usa_128_TU_mc10_mvf008_sp005,chr7,126413733,C>T,30.77%,AG.AC,None
DT_usa_128_TU_mc10_mvf008_sp005,chr7,127136278,C>T,24.49%,AG.TC,WRCY
DT_usa_128_TU_mc10_mvf008_sp005,chr8,20550743,C>G,24%,CC.GG,None
DT_usa_128_TU_mc10_mvf008_sp005,chr8,66387179,G>A,34.41%,TT.TT,None
DT_usa_128_TU_mc10_mvf008_sp005,chr8,70699446,C>T,20.37%,AG.TA,WRCY
DT_usa_128_TU_mc10_mvf008_sp005,chr8,70699485,C>T,22.73%,GG.GC,RCG
DT_usa_128_TU_mc10_mvf008_sp005,chr8,71594770,G>A,25.58%,CA.GT,None
DT_usa_128_TU_mc10_mvf008_sp005,chr8,71594771,G>A,23.46%,AG.TG,WRCY
DT_usa_128_TU_mc10_mvf008_sp005,chr8,71600452,C>A,35.44%,AG.TC,WRCY
DT_usa_128_TU_mc10_mvf008_sp005,chr8,72319213,C>T,38.46%,AG.CA,WRCY
DT_usa_128_TU_mc10_mvf008_sp005,chr8,72319242,G>A,32%,GT.CT,None
DT_usa_128_TU_mc10_mvf008_sp005,chr8,72320810,C>T,34.69%,TA.CC,WRCY
DT_usa_128_TU_mc10_mvf008_sp005,chr8,104621371,G>T,69.23%,TC.GC,None
DT_usa_128_TU_mc10_mvf008_sp005,chr8,106051954,C>T,28.57%,AT.CC,None
DT_usa_128_TU_mc10_mvf008_sp005,chr8,124614802,T>G,53.85%,GG.AG,WA
DT_usa_128_TU_mc10_mvf008_sp005,chr8,126120863,C>G,53.85%,AG.AG,None
DT_usa_128_TU_mc10_mvf008_sp005,chr8,126592546,G>A,54.55%,CC.TG,RCG
DT_usa_128_TU_mc10_mvf008_sp005,chr8,126592548,G>A,54.55%,GT.CT,None
DT_usa_128_TU_mc10_mvf008_sp005,chr8,126593036,G>A,50%,CT.CA,None
DT_usa_128_TU_mc10_mvf008_sp005,chr8,126593263,C>T,22.22%,AG.TG,WRCY
DT_usa_128_TU_mc10_mvf008_sp005,chr9,15234578,G>C,36.36%,CT.CT,None
DT_usa_128_TU_mc10_mvf008_sp005,chr9,15341037,G>A,20.69%,TA.AA,None
DT_usa_128_TU_mc10_mvf008_sp005,chr9,20642124,G>A,32.65%,AC.AC,None
DT_usa_128_TU_mc10_mvf008_sp005,chr9,20642382,C>T,33.33%,GA.TT,WRCY
DT_usa_128_TU_mc10_mvf008_sp005,chr9,32696627,C>T,38.46%,AG.TG,WRCY
DT_usa_128_TU_mc10_mvf008_sp005,chr9,45203861,T>G,35.71%,GG.GG,None
DT_usa_128_TU_mc10_mvf008_sp005,chr9,66592907,C>T,45%,GG.TC,WRCY
DT_usa_128_TU_mc10_mvf008_sp005,chr9,70207787,C>T,36.36%,AG.TG,WRCY
DT_usa_128_TU_mc10_mvf008_sp005,chr9,78480360,G>A,36.75%,AC.CT,RCG
DT_usa_128_TU_mc10_mvf008_sp005,chr9,99525584,C>A,33.33%,AA.AA,None
DT_usa_128_TU_mc10_mvf008_sp005,chrX,12456877,C>T,26.67%,TT.AA,None
DT_usa_128_TU_mc10_mvf008_sp005,chrX,26298399,G>A,100%,TC.TA,RCG
DT_usa_128_TU_mc10_mvf008_sp005,chrX,31162593,T>C,21.05%,CA.TA,WA
DT_usa_128_TU_mc10_mvf008_sp005,chrX,167207461,C>T,75%,TG.TC,WRCY
DT_usa_128_TU_mc10_mvf008_sp005,chrX,167208472,C>G,21.05%,TG.TC,WRCY
DT_usa_128_TU_mc10_mvf008_sp005,chrX,167208499,C>T,81.25%,AG.TT,WRCY
DT_usa_128_TU_mc10_mvf008_sp005,chrX,167208822,G>A,70%,CA.CT,WRCY
DT_usa_128_TU_mc10_mvf008_sp005,chrX,167208891,C>T,70.37%,AG.TG,WRCY
